{
  "name": "dd-import",
  "title": "DungeonDraft Importer",
  "description": "Imports scene elements from Dungeon Draft map files",
  "version": "0.711",
  "author": "Moo Man, m42e",
  "scripts": ["./ddimport.js"],
  "styles": ["./styles.css"],
  "packs": [],
  "minimumCoreVersion": "0.5.3",
  "compatibleCoreVersion": "0.5.5",
  "manifest": "https://raw.githubusercontent.com/moo-man/FVTT-DD-Import/master/module.json",
  "download": "https://github.com/moo-man/FVTT-DD-Import/archive/master.zip"
}
